%YAML 1.1
%TAG !u! tag:unity3d.com,2011:
--- !u!181963792 &2655988077585873504
Preset:
  m_ObjectHideFlags: 0
  m_PrefabParentObject: {fileID: 0}
  m_PrefabInternal: {fileID: 0}
  m_Name: CapsuleCollider2D
  m_TargetType:
    m_NativeTypeID: 70
    m_ManagedTypePPtr: {fileID: 0}
    m_ManagedTypeFallback: 
  m_Properties:
  - target: {fileID: 0}
    propertyPath: m_Enabled
    value: 1
    objectReference: {fileID: 0}
  - target: {fileID: 0}
    propertyPath: m_Density
    value: 1
    objectReference: {fileID: 0}
  - target: {fileID: 0}
    propertyPath: m_Material
    value: 
    objectReference: {fileID: 0}
  - target: {fileID: 0}
    propertyPath: m_IsTrigger
    value: 0
    objectReference: {fileID: 0}
  - target: {fileID: 0}
    propertyPath: m_UsedByEffector
    value: 0
    objectReference: {fileID: 0}
  - target: {fileID: 0}
    propertyPath: m_UsedByComposite
    value: 0
    objectReference: {fileID: 0}
  - target: {fileID: 0}
    propertyPath: m_Offset.x
    value: 0.14
    objectReference: {fileID: 0}
  - target: {fileID: 0}
    propertyPath: m_Offset.y
    value: -0.3
    objectReference: {fileID: 0}
  - target: {fileID: 0}
    propertyPath: m_Size.x
    value: 1.65
    objectReference: {fileID: 0}
  - target: {fileID: 0}
    propertyPath: m_Size.y
    value: 4.19
    objectReference: {fileID: 0}
  - target: {fileID: 0}
    propertyPath: m_Direction
    value: 0
    objectReference: {fileID: 0}
