%YAML 1.1
%TAG !u! tag:unity3d.com,2011:
--- !u!114 &11400000
MonoBehaviour:
  m_ObjectHideFlags: 0
  m_CorrespondingSourceObject: {fileID: 0}
  m_PrefabInternal: {fileID: 0}
  m_GameObject: {fileID: 0}
  m_Enabled: 1
  m_EditorHideFlags: 0
  m_Script: {fileID: 11500000, guid: ae0543fe805424df99fe08ce744cbe49, type: 3}
  m_Name: idle1
  m_EditorClassIdentifier: 
  m_PoseEntries:
  - path: bones/hip
    localPosition: {x: -0.03843963, y: 0.18237698, z: 0}
    localRotation: {x: 0, y: 0, z: 0.7071068, w: 0.7071068}
    localScale: {x: 1, y: 1, z: 1}
  - path: bones/hip/torso_bot1_main
    localPosition: {x: -0.22336422, y: 0.48503566, z: 0}
    localRotation: {x: -0, y: -0, z: -0.704591, w: 0.70961374}
    localScale: {x: 1, y: 1, z: 1}
  - path: bones/hip/torso_bot1_main/torso_bot2
    localPosition: {x: -0.12432108, y: -0.21340129, z: 0}
    localRotation: {x: -0, y: -0, z: 0.79758227, w: -0.6032103}
    localScale: {x: 1, y: 1, z: 1}
  - path: bones/hip/torso_bot1_main/torso_bot3
    localPosition: {x: 0.21554141, y: -0.28875774, z: 0}
    localRotation: {x: -0, y: -0, z: 0.7580018, w: -0.65225255}
    localScale: {x: 1, y: 1, z: 1}
  - path: bones/hip/torso_bot1_main/torso_bot4
    localPosition: {x: 0.63597405, y: -0.29782277, z: 0}
    localRotation: {x: -0, y: -0, z: 0.7027826, w: -0.71140474}
    localScale: {x: 1, y: 1, z: 1}
  - path: bones/hip/torso_bot1_main/torso_bot5
    localPosition: {x: 1.062123, y: -0.23023617, z: 0}
    localRotation: {x: -0, y: -0, z: 0.6689438, w: -0.74331295}
    localScale: {x: 1, y: 1, z: 1}
  - path: bones/hip/torso_bot1_main/torso_top1_main
    localPosition: {x: 0.025215084, y: 0.5157986, z: 0}
    localRotation: {x: 0, y: 0, z: -0.0647793, w: -0.99789965}
    localScale: {x: 1.0000013, y: 1.0000013, z: 1}
  - path: bones/hip/torso_bot1_main/torso_top1_main/torso_top2
    localPosition: {x: -0.0036415893, y: 0.12820844, z: 0}
    localRotation: {x: 0, y: -0, z: 0.6749475, w: 0.7378658}
    localScale: {x: 1, y: 1, z: 1}
  - path: bones/hip/torso_bot1_main/torso_top1_main/torso_top3
    localPosition: {x: 1.0497737, y: 0.12691858, z: 0}
    localRotation: {x: 0, y: -0, z: 0.6454698, w: 0.7637858}
    localScale: {x: 1, y: 1, z: 1}
  - path: bones/hip/torso_back1
    localPosition: {x: -0.13278484, y: -0.55861443, z: 0}
    localRotation: {x: 0, y: 0, z: 0.9552722, w: -0.29572803}
    localScale: {x: 1, y: 1, z: 1}
  - path: bones/hip/torso_back1/torso_back1.2
    localPosition: {x: 0.39163294, y: -0.01978991, z: 0}
    localRotation: {x: -0, y: 0, z: -0.07291195, w: 0.9973384}
    localScale: {x: 1, y: 1, z: 1}
  - path: bones/hip/torso_back1/torso_back1.3
    localPosition: {x: 0.37744915, y: -0.4105116, z: 0}
    localRotation: {x: -0, y: 0, z: -0.31298503, w: 0.9497581}
    localScale: {x: 1, y: 1, z: 1}
  - path: bones/hip/torso_back2
    localPosition: {x: -0.14483361, y: -0.79155546, z: 0}
    localRotation: {x: -0, y: -0, z: 0.9141013, w: -0.40548587}
    localScale: {x: 1, y: 1, z: 1}
  - path: bones/hip/torso_back2/torso_back2.1
    localPosition: {x: 0.23859271, y: 0.0021149628, z: 0}
    localRotation: {x: -0, y: 0, z: -0.07381812, w: 0.9972717}
    localScale: {x: 1, y: 1, z: 1}
  - path: bones/hip/torso_back3
    localPosition: {x: -0.27221015, y: -0.68540835, z: 0}
    localRotation: {x: -0, y: -0, z: 0.89073837, w: -0.4545165}
    localScale: {x: 1, y: 1, z: 1}
  - path: bones/hip/torso_back3/torso_back3.1
    localPosition: {x: 0.29229975, y: 0.021756833, z: 0}
    localRotation: {x: -0, y: 0, z: -0.05429229, w: 0.99852514}
    localScale: {x: 1, y: 1, z: 1}
  - path: bones/hip/neck_main1
    localPosition: {x: 0.9455974, y: 0.31407094, z: 0}
    localRotation: {x: -0, y: -0, z: -0, w: 1}
    localScale: {x: 1, y: 1, z: 1}
  - path: bones/hip/neck_main1/neck_main2
    localPosition: {x: 0.22973278, y: -0.005221814, z: 0}
    localRotation: {x: -0, y: -0, z: -0.0020834205, w: 0.99999785}
    localScale: {x: 1, y: 1, z: 1}
  - path: bones/hip/neck_main1/neck_main2/neck_main3
    localPosition: {x: 0.39210793, y: -0.123675294, z: 0}
    localRotation: {x: -0, y: -0, z: -0.6286875, w: 0.7776581}
    localScale: {x: 1, y: 1, z: 1}
  - path: bones/hip/neck_main1/neck_main2/neck_main6
    localPosition: {x: 0.13968699, y: 0.30863506, z: 0}
    localRotation: {x: -0, y: -0, z: -0.10453952, w: 0.9945207}
    localScale: {x: 1, y: 1, z: 1}
  - path: bones/hip/neck_main1/neck_main2/neck_main4
    localPosition: {x: 0.40944666, y: -0.5256383, z: 0}
    localRotation: {x: -0, y: -0, z: -0.8030716, w: 0.5958826}
    localScale: {x: 1, y: 1, z: 1}
  - path: bones/hip/neck_main1/neck_main2/neck_main5
    localPosition: {x: 0.25453106, y: -0.9387621, z: 0}
    localRotation: {x: -0, y: -0, z: -0.9188607, w: 0.3945822}
    localScale: {x: 1, y: 1, z: 1}
  - path: bones/hip/r_arm_top1_main
    localPosition: {x: 1.4645344, y: -0.32860982, z: 0}
    localRotation: {x: 0, y: 0, z: -0.9539799, w: 0.29987052}
    localScale: {x: 1, y: 1, z: 1}
  - path: bones/hip/r_arm_top1_main/r_arm_top2
    localPosition: {x: 0.1746293, y: -0.30952564, z: 0}
    localRotation: {x: -0, y: -0, z: 0.62411565, w: 0.78133196}
    localScale: {x: 1, y: 1, z: 1}
  - path: bones/hip/r_arm_top1_main/r_arm_top3
    localPosition: {x: 0.5958766, y: -0.36794588, z: 0}
    localRotation: {x: -0, y: -0, z: 0.65926874, w: 0.75190747}
    localScale: {x: 1, y: 1, z: 1}
  - path: bones/hip/r_arm_top1_main/r_arm_top3/r_arm_top4
    localPosition: {x: -0.028175328, y: -0.08025633, z: 0}
    localRotation: {x: -0, y: -0, z: -0.7685027, w: 0.6398465}
    localScale: {x: 1, y: 1, z: 1}
  - path: bones/hip/r_arm_top1_main/r_arm_top3/r_arm_top5
    localPosition: {x: 0.105664246, y: -0.07551221, z: 0}
    localRotation: {x: -0, y: -0, z: -0.68728703, w: 0.72638595}
    localScale: {x: 1, y: 1, z: 1}
  - path: bones/hip/r_arm_top1_main/r_arm_top3/r_arm_top6
    localPosition: {x: 0.25123236, y: -0.10097335, z: 0}
    localRotation: {x: -0, y: -0, z: -0.7147829, w: 0.6993465}
    localScale: {x: 1, y: 1, z: 1}
  - path: bones/hip/r_arm_top1_main/r_arm_top3/r_arm_top7
    localPosition: {x: 0.39674282, y: -0.10344371, z: 0}
    localRotation: {x: -0, y: -0, z: -0.71478295, w: 0.6993464}
    localScale: {x: 1, y: 1, z: 1}
  - path: bones/hip/r_arm_top1_main/r_arm_top3/r_arm_top8
    localPosition: {x: 0.5352749, y: -0.08609003, z: 0}
    localRotation: {x: -0, y: -0, z: -0.71478295, w: 0.6993464}
    localScale: {x: 1, y: 1, z: 1}
  - path: bones/hip/r_arm_top1_main/r_arm_top3/r_arm_top9
    localPosition: {x: 0.70565337, y: -0.0834592, z: 0}
    localRotation: {x: -0, y: -0, z: -0.665665, w: 0.74625075}
    localScale: {x: 1, y: 1, z: 1}
  - path: bones/hip/r_arm1
    localPosition: {x: 1.1773384, y: -0.66898173, z: 0}
    localRotation: {x: 0, y: 0, z: -0.99922377, w: 0.03939429}
    localScale: {x: 1, y: 1, z: 1}
  - path: bones/hip/r_arm1/r_arm2
    localPosition: {x: 0.91000015, y: -0.00000011920923, z: 0}
    localRotation: {x: 0, y: 0, z: -0.3177447, w: 0.9481763}
    localScale: {x: 1, y: 1, z: 1}
  - path: bones/hip/r_arm1/r_arm2/r_arm3
    localPosition: {x: 0.43, y: 0.00000020861626, z: 0}
    localRotation: {x: 0, y: 0, z: 0, w: 1}
    localScale: {x: 1, y: 1, z: 1}
  - path: bones/hip/l_arm_top1_main
    localPosition: {x: 1.3009582, y: 0.4046209, z: 0}
    localRotation: {x: -0, y: -0, z: 0.923967, w: 0.38247243}
    localScale: {x: 1, y: 1, z: 1}
  - path: bones/hip/l_arm_top1_main/l_arm_top2
    localPosition: {x: 0.38666216, y: 0.34333494, z: 0}
    localRotation: {x: -0, y: -0, z: -0.49418908, w: 0.8693545}
    localScale: {x: 1, y: 1, z: 1}
  - path: bones/hip/l_arm_top1_main/l_arm_top2/l_arm_top3
    localPosition: {x: 0.08524834, y: 0.058413275, z: 0}
    localRotation: {x: -0, y: -0, z: 0.7460232, w: 0.66592}
    localScale: {x: 1, y: 1, z: 1}
  - path: bones/hip/l_arm_top1_main/l_arm_top2/l_arm_top4
    localPosition: {x: 0.18111873, y: 0.07387887, z: 0}
    localRotation: {x: -0, y: -0, z: 0.70257217, w: 0.7116126}
    localScale: {x: 1, y: 1, z: 1}
  - path: bones/hip/l_arm_top1_main/l_arm_top2/l_arm_top5
    localPosition: {x: 0.28871948, y: 0.08937923, z: 0}
    localRotation: {x: 0, y: 0, z: 0.74602395, w: 0.6659192}
    localScale: {x: 1, y: 1, z: 1}
  - path: bones/hip/l_arm_top1_main/l_arm_top2/l_arm_top6
    localPosition: {x: 0.41793084, y: 0.031109229, z: 0}
    localRotation: {x: -0, y: -0, z: 0.70257217, w: 0.7116126}
    localScale: {x: 1, y: 1, z: 1}
  - path: bones/hip/l_arm1
    localPosition: {x: 1.0804763, y: 0.4544636, z: 0}
    localRotation: {x: -0, y: -0, z: 0.99995303, w: -0.009695261}
    localScale: {x: 1, y: 1, z: 1}
  - path: bones/hip/l_arm1/l_arm2
    localPosition: {x: 0.7160893, y: 0, z: 0}
    localRotation: {x: 0, y: 0, z: -0.35604033, w: 0.93447065}
    localScale: {x: 1, y: 1, z: 1}
  - path: bones/hip/l_arm1/l_arm2/l_arm3
    localPosition: {x: 0.36770603, y: 0.00000013411045, z: 0}
    localRotation: {x: 0, y: 0, z: -0.0059383325, w: 0.99998236}
    localScale: {x: 1, y: 1, z: 1}
  - path: bones/hip/belt1_main
    localPosition: {x: 0.034841973, y: -0.7604419, z: 0}
    localRotation: {x: -0, y: -0, z: 0.075050615, w: 0.99717975}
    localScale: {x: 1, y: 1, z: 1}
  - path: bones/hip/belt1_main/belt2
    localPosition: {x: -0.21442007, y: 1.4004686, z: 0}
    localRotation: {x: 0, y: 0, z: -0.047796413, w: 0.99885714}
    localScale: {x: 1, y: 1, z: 1}
  - path: bones/hip/belt1_main/belt3
    localPosition: {x: -0.35797772, y: 0.90767527, z: 0}
    localRotation: {x: -0, y: -0, z: -0.075050615, w: 0.99717975}
    localScale: {x: 1, y: 1, z: 1}
  - path: bones/hip/belt1_main/belt4
    localPosition: {x: -0.40679166, y: 0.4801047, z: 0}
    localRotation: {x: -0, y: -0, z: -0.032341566, w: 0.9994769}
    localScale: {x: 1, y: 1, z: 1}
  - path: bones/hip/belt1_main/belt5
    localPosition: {x: -0.2522752, y: 0.06418876, z: 0}
    localRotation: {x: -0, y: -0, z: 0.060332805, w: 0.99817836}
    localScale: {x: 1, y: 1, z: 1}
  - path: bones/hip/neck_back1
    localPosition: {x: 1.0622962, y: -0.8503367, z: 0}
    localRotation: {x: -0, y: -0, z: -0.99685526, w: 0.07924461}
    localScale: {x: 1, y: 1, z: 1}
  - path: bones/hip/neck_back1/neck_back2
    localPosition: {x: 0.32087472, y: 0.0020835996, z: 0}
    localRotation: {x: 0, y: -0, z: -0.0298702, w: 0.9995538}
    localScale: {x: 1, y: 1, z: 1}
  - path: bones/hip/neck_back1/neck_back2/neck_back3
    localPosition: {x: 0.32789093, y: 0.019990988, z: 0}
    localRotation: {x: -0, y: -0, z: 0.061345186, w: 0.9981166}
    localScale: {x: 1, y: 1, z: 1}
  - path: bones/hip/head1_main
    localPosition: {x: 1.5469804, y: -0.07662904, z: 0}
    localRotation: {x: -0, y: -0, z: 0.2532636, w: 0.96739733}
    localScale: {x: 1, y: 1, z: 1}
  - path: bones/hip/head1_main/head2
    localPosition: {x: 0.4482997, y: -0.013863736, z: 0}
    localRotation: {x: -0, y: -0, z: 0.5501926, w: 0.8350378}
    localScale: {x: 1, y: 1, z: 1}
  - path: bones/hip/head1_main/head3
    localPosition: {x: 0.60856843, y: -0.15238957, z: 0}
    localRotation: {x: -0, y: -0, z: 0.5232986, w: 0.8521494}
    localScale: {x: 1, y: 1, z: 1}
  - path: bones/hip/head1_main/hair1_main
    localPosition: {x: 0.16734952, y: -0.09941989, z: 0}
    localRotation: {x: -0, y: -0, z: -0.8446419, w: 0.53533185}
    localScale: {x: 1, y: 1, z: 1}
  - path: bones/hip/head1_main/hair1_main/hair2
    localPosition: {x: 0.20480338, y: 0.0030487133, z: 0}
    localRotation: {x: 0, y: 0, z: 0.006461403, w: 0.99997914}
    localScale: {x: 1, y: 1, z: 1}
  - path: bones/hip/head1_main/hair1_main/hair2/hair3
    localPosition: {x: 0.2532755, y: -0.005127696, z: 0}
    localRotation: {x: 0, y: 0, z: -0.24353425, w: 0.9698923}
    localScale: {x: 1, y: 1, z: 1}
  - path: bones/hip/head1_main/hair1_main/hair2/hair3/hair4
    localPosition: {x: 0.21368456, y: -0.031916715, z: 0}
    localRotation: {x: -0, y: -0, z: -0.14733699, w: 0.98908645}
    localScale: {x: 1, y: 1, z: 1}
  - path: bones/hip/head1_main/hair1_main/hair5
    localPosition: {x: 0.25003442, y: 0.08639025, z: 0}
    localRotation: {x: -0, y: -0, z: 0.22820973, w: 0.97361207}
    localScale: {x: 1, y: 1, z: 1}
  - path: bones/hip/head1_main/head_jaw
    localPosition: {x: 0.034474075, y: 0.10678379, z: 0}
    localRotation: {x: -0, y: -0, z: 0.7024626, w: 0.71172065}
    localScale: {x: 1, y: 1, z: 1}
  - path: bones/hip/head1_main/hair6_main
    localPosition: {x: 0.2500301, y: -0.08819059, z: 0}
    localRotation: {x: -0, y: -0, z: -0.9704568, w: -0.24127522}
    localScale: {x: 1, y: 1, z: 1}
  - path: bones/hip/head1_main/hair6_main/hair7
    localPosition: {x: 0.12959288, y: 0.0025239214, z: 0}
    localRotation: {x: -0, y: -0, z: -0.02933225, w: 0.9995698}
    localScale: {x: 1, y: 1, z: 1}
  - path: bones/hip/head1_main/hair6_main/hair7/hair8
    localPosition: {x: 0.090593375, y: -0.0003649188, z: 0}
    localRotation: {x: -0, y: -0, z: -0, w: 1}
    localScale: {x: 1, y: 1, z: 1}
  - path: bones/hip/head1_main/hair6_main/hair7/hair8/hair9
    localPosition: {x: 0.15476793, y: 0.000666527, z: 0}
    localRotation: {x: -0, y: -0, z: -0.000000026077027, w: 1}
    localScale: {x: 1, y: 1, z: 1}
  - path: bones/hip/r_leg1
    localPosition: {x: -0.25639036, y: -0.47882882, z: 0}
    localRotation: {x: -0, y: -0, z: -0.9925691, w: 0.12168297}
    localScale: {x: 1, y: 1, z: 1}
  - path: bones/hip/r_leg1/r_leg2
    localPosition: {x: 0.57, y: 0, z: 0}
    localRotation: {x: 0, y: 0, z: 0.1787744, w: 0.9838901}
    localScale: {x: 1, y: 1, z: 1}
  - path: bones/hip/r_leg1/r_leg2/r_leg3
    localPosition: {x: 0.7500284, y: 0.00000013038516, z: 0}
    localRotation: {x: 0, y: 0, z: -0.83243924, w: 0.55411637}
    localScale: {x: 1, y: 1, z: 1}
  - path: bones/hip/r_leg1/r_leg2/r_leg3/r_leg4
    localPosition: {x: 0.45000005, y: -0.00000023841858, z: 0}
    localRotation: {x: 0, y: 0, z: -0.08366756, w: 0.99649376}
    localScale: {x: 1, y: 1, z: 1}
  - path: bones/hip/r_leg1/r_leg2/r_leg2.1
    localPosition: {x: 0.18301407, y: -0.35647088, z: 0}
    localRotation: {x: -0, y: -0, z: -0.46387684, w: -0.8858997}
    localScale: {x: 1, y: 1, z: 1}
  - path: bones/hip/r_leg1/r_leg2/r_leg2.2
    localPosition: {x: 0.40883654, y: 0.061312612, z: 0}
    localRotation: {x: -0, y: -0, z: -0.71411663, w: -0.7000268}
    localScale: {x: 1, y: 1, z: 1}
  - path: bones/hip/l_leg1
    localPosition: {x: -0.74795985, y: 0.42863762, z: 0}
    localRotation: {x: -0, y: -0, z: -0.9831372, w: 0.18286964}
    localScale: {x: 1, y: 1, z: 1}
  - path: bones/hip/l_leg1/l_leg2
    localPosition: {x: 0.46000007, y: -0.000000029802308, z: 0}
    localRotation: {x: 0, y: 0, z: -0.79777217, w: 0.6029591}
    localScale: {x: 1, y: 1, z: 1}
  - path: bones/hip/l_leg1/l_leg2/l_leg3
    localPosition: {x: 0.48000014, y: 0, z: 0}
    localRotation: {x: 0, y: 0, z: -0.028306177, w: 0.99959934}
    localScale: {x: 1, y: 1, z: 1}
