%YAML 1.1
%TAG !u! tag:unity3d.com,2011:
--- !u!1045 &1
EditorBuildSettings:
  m_ObjectHideFlags: 0
  serializedVersion: 2
  m_Scenes:
  - enabled: 1
    path: Assets/Scenes/Level_zero_Profiles/Level_zero.unity
    guid: 88690fa37d1d7714bb7a20f7c06b1a6c
  m_configObjects: {}
